%YAML 1.1
%TAG !u! tag:unity3d.com,2011:
--- !u!74 &7400000
AnimationClip:
  m_ObjectHideFlags: 0
  m_CorrespondingSourceObject: {fileID: 0}
  m_PrefabInstance: {fileID: 0}
  m_PrefabAsset: {fileID: 0}
  m_Name: DefeatedMeleeEnemyAnimation
  serializedVersion: 7
  m_Legacy: 0
  m_Compressed: 0
  m_UseHighQualityCurve: 1
  m_RotationCurves: []
  m_CompressedRotationCurves: []
  m_EulerCurves: []
  m_PositionCurves: []
  m_ScaleCurves: []
  m_FloatCurves: []
  m_PPtrCurves:
  - serializedVersion: 2
    curve:
    - time: 0
      value: {fileID: 21300000, guid: 35c7c612a9d3e5b49bd4ae897ac1c2ac, type: 3}
    - time: 0.083333336
      value: {fileID: 21300000, guid: 0df501bf394af92499881335020291c1, type: 3}
    - time: 0.16666667
      value: {fileID: 21300000, guid: 4da437e9304608b4a965217fe44b583a, type: 3}
    - time: 0.25
      value: {fileID: 21300000, guid: de1fbfc1552c2414caf45fbe824cc7ed, type: 3}
    - time: 0.33333334
      value: {fileID: 21300000, guid: 27470a8d3777b8e42bee3c21e87deb61, type: 3}
    - time: 0.41666666
      value: {fileID: 21300000, guid: 83ccdb943ed29bc4689f07cbb47493e6, type: 3}
    - time: 0.5
      value: {fileID: 21300000, guid: c2c490b6bbb17b347aba0fdc84f513d4, type: 3}
    - time: 0.5833333
      value: {fileID: 21300000, guid: 2397ac35b1332cd4a86ba7983835d849, type: 3}
    - time: 0.6666667
      value: {fileID: 21300000, guid: 3d6c7c5a4b083da409ef7514ba20e276, type: 3}
    - time: 0.75
      value: {fileID: 21300000, guid: cdc42e6df290e24419deb39f982d568c, type: 3}
    - time: 0.8333333
      value: {fileID: 21300000, guid: aaf5b97acd9d883409382b5ddd7bf81b, type: 3}
    - time: 0.9166667
      value: {fileID: 21300000, guid: 25477464e403e8d41b48d6193f54144a, type: 3}
    - time: 1
      value: {fileID: 21300000, guid: 62c47e45c886f9a41a09b5f7894e352a, type: 3}
    - time: 1.0833334
      value: {fileID: 21300000, guid: c71c7c5b0afebd44a90abe60dcfd75ae, type: 3}
    - time: 1.1666666
      value: {fileID: 21300000, guid: 5ab8ffa368dad234f90106c3bc6fd9cb, type: 3}
    - time: 1.25
      value: {fileID: 21300000, guid: a7ec76aeaa604084aba65b9ee67753e6, type: 3}
    - time: 1.3333334
      value: {fileID: 21300000, guid: 5c0fe9aa7861e124d8ef52583901a465, type: 3}
    - time: 1.4166666
      value: {fileID: 21300000, guid: 3fdf64deb7f3f6349a95bcb2616089a9, type: 3}
    - time: 1.5
      value: {fileID: 21300000, guid: 5533dd3b8882c034193fd5f566c136a9, type: 3}
    - time: 1.5833334
      value: {fileID: 21300000, guid: 810d9cb396ee7054b944940200030e7a, type: 3}
    - time: 1.6666666
      value: {fileID: 21300000, guid: f0b99e5f944a6044f95b1a81abe4a2f6, type: 3}
    - time: 1.75
      value: {fileID: 21300000, guid: 8aa5ddf50a198134cb9401919f245f9d, type: 3}
    attribute: m_Sprite
    path: 
    classID: 212
    script: {fileID: 0}
    flags: 2
  m_SampleRate: 12
  m_WrapMode: 0
  m_Bounds:
    m_Center: {x: 0, y: 0, z: 0}
    m_Extent: {x: 0, y: 0, z: 0}
  m_ClipBindingConstant:
    genericBindings:
    - serializedVersion: 2
      path: 0
      attribute: 0
      script: {fileID: 0}
      typeID: 212
      customType: 23
      isPPtrCurve: 1
      isIntCurve: 0
      isSerializeReferenceCurve: 0
    pptrCurveMapping:
    - {fileID: 21300000, guid: 35c7c612a9d3e5b49bd4ae897ac1c2ac, type: 3}
    - {fileID: 21300000, guid: 0df501bf394af92499881335020291c1, type: 3}
    - {fileID: 21300000, guid: 4da437e9304608b4a965217fe44b583a, type: 3}
    - {fileID: 21300000, guid: de1fbfc1552c2414caf45fbe824cc7ed, type: 3}
    - {fileID: 21300000, guid: 27470a8d3777b8e42bee3c21e87deb61, type: 3}
    - {fileID: 21300000, guid: 83ccdb943ed29bc4689f07cbb47493e6, type: 3}
    - {fileID: 21300000, guid: c2c490b6bbb17b347aba0fdc84f513d4, type: 3}
    - {fileID: 21300000, guid: 2397ac35b1332cd4a86ba7983835d849, type: 3}
    - {fileID: 21300000, guid: 3d6c7c5a4b083da409ef7514ba20e276, type: 3}
    - {fileID: 21300000, guid: cdc42e6df290e24419deb39f982d568c, type: 3}
    - {fileID: 21300000, guid: aaf5b97acd9d883409382b5ddd7bf81b, type: 3}
    - {fileID: 21300000, guid: 25477464e403e8d41b48d6193f54144a, type: 3}
    - {fileID: 21300000, guid: 62c47e45c886f9a41a09b5f7894e352a, type: 3}
    - {fileID: 21300000, guid: c71c7c5b0afebd44a90abe60dcfd75ae, type: 3}
    - {fileID: 21300000, guid: 5ab8ffa368dad234f90106c3bc6fd9cb, type: 3}
    - {fileID: 21300000, guid: a7ec76aeaa604084aba65b9ee67753e6, type: 3}
    - {fileID: 21300000, guid: 5c0fe9aa7861e124d8ef52583901a465, type: 3}
    - {fileID: 21300000, guid: 3fdf64deb7f3f6349a95bcb2616089a9, type: 3}
    - {fileID: 21300000, guid: 5533dd3b8882c034193fd5f566c136a9, type: 3}
    - {fileID: 21300000, guid: 810d9cb396ee7054b944940200030e7a, type: 3}
    - {fileID: 21300000, guid: f0b99e5f944a6044f95b1a81abe4a2f6, type: 3}
    - {fileID: 21300000, guid: 8aa5ddf50a198134cb9401919f245f9d, type: 3}
  m_AnimationClipSettings:
    serializedVersion: 2
    m_AdditiveReferencePoseClip: {fileID: 0}
    m_AdditiveReferencePoseTime: 0
    m_StartTime: 0
    m_StopTime: 1.8333334
    m_OrientationOffsetY: 0
    m_Level: 0
    m_CycleOffset: 0
    m_HasAdditiveReferencePose: 0
    m_LoopTime: 0
    m_LoopBlend: 0
    m_LoopBlendOrientation: 0
    m_LoopBlendPositionY: 0
    m_LoopBlendPositionXZ: 0
    m_KeepOriginalOrientation: 0
    m_KeepOriginalPositionY: 1
    m_KeepOriginalPositionXZ: 0
    m_HeightFromFeet: 0
    m_Mirror: 0
  m_EditorCurves: []
  m_EulerEditorCurves: []
  m_HasGenericRootTransform: 0
  m_HasMotionFloatCurves: 0
  m_Events:
  - time: 1
    functionName: Explode
    data: 
    objectReferenceParameter: {fileID: 0}
    floatParameter: 0
    intParameter: 0
    messageOptions: 0
