%YAML 1.1
%TAG !u! tag:unity3d.com,2011:
--- !u!78 &1
TagManager:
  serializedVersion: 2
  tags:
  - Bullet
  - EdgeWall
  - Character
  - Dead
  - BackgroundMusic
  - Ground
  layers:
  - Default
  - TransparentFX
  - Ignore Raycast
  - 
  - Water
  - UI
  - Ground
  - Hero
  - Enemies
  - 
  - 
  - 
  - 
  - 
  - 
  - 
  - 
  - 
  - 
  - 
  - 
  - 
  - 
  - 
  - 
  - 
  - 
  - 
  - 
  - 
  - 
  - 
  m_SortingLayers:
  - name: Background
    uniqueID: 2827159817
    locked: 0
  - name: Default
    uniqueID: 0
    locked: 0
  - name: Characters
    uniqueID: 3508359021
    locked: 0
