%YAML 1.1
%TAG !u! tag:unity3d.com,2011:
--- !u!74 &7400000
AnimationClip:
  m_ObjectHideFlags: 0
  m_CorrespondingSourceObject: {fileID: 0}
  m_PrefabInstance: {fileID: 0}
  m_PrefabAsset: {fileID: 0}
  m_Name: HurtHeroAnimation
  serializedVersion: 7
  m_Legacy: 0
  m_Compressed: 0
  m_UseHighQualityCurve: 1
  m_RotationCurves: []
  m_CompressedRotationCurves: []
  m_EulerCurves: []
  m_PositionCurves: []
  m_ScaleCurves: []
  m_FloatCurves: []
  m_PPtrCurves:
  - serializedVersion: 2
    curve:
    - time: 0
      value: {fileID: 21300000, guid: aa3344d923a53cb44a5a08a852f885db, type: 3}
    - time: 0.083333336
      value: {fileID: 21300000, guid: ffcfb2e15b5e3744c9d0d4ed4faf9438, type: 3}
    - time: 0.16666667
      value: {fileID: 21300000, guid: 7e0a3ed94b6515e42a3f976e932bf96b, type: 3}
    - time: 0.25
      value: {fileID: 21300000, guid: 03c8402cd60fe5a4397675fee86b3816, type: 3}
    - time: 0.33333334
      value: {fileID: 21300000, guid: 879329aafc6d4b547825c93b9a174c36, type: 3}
    - time: 0.41666666
      value: {fileID: 21300000, guid: 3a617fef55008ee4c9edea243184f25d, type: 3}
    attribute: m_Sprite
    path: 
    classID: 212
    script: {fileID: 0}
    flags: 2
  m_SampleRate: 12
  m_WrapMode: 0
  m_Bounds:
    m_Center: {x: 0, y: 0, z: 0}
    m_Extent: {x: 0, y: 0, z: 0}
  m_ClipBindingConstant:
    genericBindings:
    - serializedVersion: 2
      path: 0
      attribute: 0
      script: {fileID: 0}
      typeID: 212
      customType: 23
      isPPtrCurve: 1
      isIntCurve: 0
      isSerializeReferenceCurve: 0
    pptrCurveMapping:
    - {fileID: 21300000, guid: aa3344d923a53cb44a5a08a852f885db, type: 3}
    - {fileID: 21300000, guid: ffcfb2e15b5e3744c9d0d4ed4faf9438, type: 3}
    - {fileID: 21300000, guid: 7e0a3ed94b6515e42a3f976e932bf96b, type: 3}
    - {fileID: 21300000, guid: 03c8402cd60fe5a4397675fee86b3816, type: 3}
    - {fileID: 21300000, guid: 879329aafc6d4b547825c93b9a174c36, type: 3}
    - {fileID: 21300000, guid: 3a617fef55008ee4c9edea243184f25d, type: 3}
  m_AnimationClipSettings:
    serializedVersion: 2
    m_AdditiveReferencePoseClip: {fileID: 0}
    m_AdditiveReferencePoseTime: 0
    m_StartTime: 0
    m_StopTime: 0.5
    m_OrientationOffsetY: 0
    m_Level: 0
    m_CycleOffset: 0
    m_HasAdditiveReferencePose: 0
    m_LoopTime: 1
    m_LoopBlend: 0
    m_LoopBlendOrientation: 0
    m_LoopBlendPositionY: 0
    m_LoopBlendPositionXZ: 0
    m_KeepOriginalOrientation: 0
    m_KeepOriginalPositionY: 1
    m_KeepOriginalPositionXZ: 0
    m_HeightFromFeet: 0
    m_Mirror: 0
  m_EditorCurves: []
  m_EulerEditorCurves: []
  m_HasGenericRootTransform: 0
  m_HasMotionFloatCurves: 0
  m_Events: []
